access_bytes/size	test	train	ref
1_1	54.7952	54.7952	2040.43
2_1	4.66667	4.66667	140.333
3_1	5	5	153
4_1	4.66667	4.66667	140.333
5_1	5	5	153
6_1	4.66667	4.66667	140.333
7_1	5	5	153
8_1	4.66667	4.66667	140.333
9_1	5	5	153
10_1	4.66667	4.66667	140.333
11_1	5	5	153
12_1	4.66667	4.66667	140.333
13_1	5	5	153
14_1	1	1	1
15_1	1	1	1
