ID	ref	train	test	
1_1	1294.86	522.671	295.959	
2_1	9.27636	9.2762	9.27248	
3_1	14.1719	14.7252	15.2828	
4_1	16.4073	16.4905	16.5479	
5_1	17.6768	17.6766	17.6661	
6_1	22.0257	22.3927	22.6442	
7_1	25.8505	25.9432	26.0077	
8_1	23.8627	25.0871	26.3123	
9_1	2630.45	999.921	405.541	
10_1	26.5443	26.3888	26.2774	
