ID	native	simlarge	test	
1_1	2.00001	2	0	
2_1	2.01507	0.198221	0	
3_1	2.0105	2.0805	0	
4_1	2.11613	16.3779	0	
5_1	2.95089	2.99669	0	
6_1	153.674	1014.83	0	
7_1	30.3163	0.00878391	0	
8_1	46.751	12.3196	0	
9_1	0.253269	0	0	
10_1	0.00137849	0	0	
