ID	ref	train	test	
1_1	99.6465	99.8688	99.8688	
2_1	91.1036	91.8682	91.8682	
3_1	91.0587	92.8386	92.8386	
4_1	92.3868	92.4262	92.4262	
5_1	99.7456	99.6809	99.6696	
6_1	98.9077	98.4177	98.3738	
7_1	97.2948	97.3457	97.3457	
8_1	99.6871	99.4527	99.3278	
9_1	97.5402	96.7271	96.7256	
10_1	99.3299	99.0851	99.2467	
