ID	ref	train	test	
1_1	1.433	1.41011	1.35992	
2_1	2.3784e-09	9.9408e-09	5.97607e-08	
3_1	0.95374	0.950038	0.941883	
4_1	0.95374	0.950038	0.941883	
5_1	2.57912e-09	1.07871e-08	6.4942e-08	
6_1	3.5389	3.52009	3.47923	
7_1	0.0273063	0.0435831	0.077657	
8_1	4.40357e-09	1.83762e-08	1.10077e-07	
9_1	0.0422374	0.0420843	0.041754	
10_1	5.66038e-09	2.29399e-08	1.29181e-07	
