ID	ref	train	test	
1_1	58800000	8064000	2268000	
2_1	300004	56004	28004	
3_1	4200000	672000	252000	
4_1	8400000	1344000	504000	
5_1	117600000	16128000	4536000	
6_1	600016	112016	56016	
7_1	600016	112016	56016	
8_1	600016	112016	56016	
9_1	600016	112016	56016	
10_1	600016	112016	56016	
