ID	ref	train	test	
1_1	0	0	0	
2_1	98.8281	98.8281	98.8281	
3_1	97.9166	97.9166	97.9166	
4_1	55	54.9999	55	
5_1	87.5	87.5	87.5	
6_1	87.5	87.5	87.5	
7_1	87.7404	87.7404	87.7404	
8_1	91.6667	91.6667	91.6667	
9_1	59.0107	66.005	58.0448	
10_1	92.8855	93.2665	92.6215	
