ID	ref	train	test	
1_1	74.6926	0	74.7284	
2_1	81.7442	0	81.6963	
3_1	50.6329	0	0	
4_1	87.6444	0	87.8967	
5_1	99.707	0	99.707	
6_1	99.6194	0	99.3587	
7_1	99.6195	0	99.3914	
8_1	0	0	0	
9_1	99.3951	0	99.4345	
10_1	83.3333	0	0	
